﻿TOPIC	GROUP
	
Nhảy ba bước	Thể thao
Nhảy xa	Thể thao
Nhảy cao	Thể thao
Nhảy sào	Thể thao
Chạy marathon	Thể thao
Chạy nước rút	Thể thao
Chạy cự ly trung bình	Thể thao
Chạy cự ly dài	Thể thao
Chạy tiếp sức	Thể thao
Chạy vượt rào	Thể thao
Chạy vượt chướng ngại vật	Thể thao
Chạy việt dã	Thể thao
Ném đĩa	Thể thao
Ném búa (tạ xích)	Thể thao
Phóng lao (ném lao)	Thể thao
Đẩy tạ	Thể thao
Đi bộ	Thể thao
Đi bộ cự ly ngắn	Thể thao
Đi bộ cự ly trung bình	Thể thao
Đi bộ cự ly dài	Thể thao
Đi bộ việt dã	Thể thao
Đấu bò	Thể thao
Đua lạc đà	Thể thao
Cưỡi ngựa	Thể thao
Cưỡi ngựa vượt chướng ngại vật	Thể thao
Đua ngựa	Thể thao
Đua ngựa có yên	Thể thao
Đua chó	Thể thao
Đua lợn	Thể thao
Vovinam	Thể thao
Vịnh Xuân Quyền	Thể thao
Judo	Thể thao
Karate	Thể thao
Kick boxing	Thể thao
Kung-fu	Thể thao
Muay Thai	Thể thao
Pencak Silat	Thể thao
Sumo	Thể thao
Taekwondo	Thể thao
Thái cực quyền	Thể thao
Vật	Thể thao
Võ thuật Việt Nam	Thể thao
Wushu	Thể thao
Kendo	Thể thao
Aikido	Thể thao
WWE	Thể thao
Bicycle polo	Thể thao
BMX racing	Thể thao
Cycloball	Thể thao
Cyclocross	Thể thao
Mountain bicycling	Thể thao
Mountain unicycling	Thể thao
Road bicycle racing	Thể thao
Track cycling	Thể thao
Đua xe đạp lòng chảo	Thể thao
Trượt ván (skateboard)	Thể thao
Patanh	Thể thao
Patanh một hàng bánh	Thể thao
Patanh hai hàng bánh	Thể thao
Mộtô địa hình	Thể thao
Ô tô địa hình	Thể thao
Xe đạp địa hình	Thể thao
Leo núi	Thể thao
Leo tường	Thể thao
Thể dục nghệ thuật	Thể thao
Thể dục nhịp điệu	Thể thao
Thể dục dụng cụ	Thể thao
Thể dục tự do	Thể thao
Xà đơn	Thể thao
Xà kép	Thể thao
Ngựa gỗ	Thể thao
Vòng treo	Thể thao
Ngựa tay quai	Thể thao
Cầu thăng bằng	Thể thao
Xà lệch	Thể thao
Thể hình	Thể thao
Nhảy ba lê	Thể thao
Nhảy hip hop	Thể thao
Nhảy jazz	Thể thao
Khiêu vũ thể thao (dancesport)	Thể thao
Đua ô tô	Thể thao
Đua mô tô	Thể thao
Đua xe công thức một	Thể thao
Đua xe công thức hai	Thể thao
Đua xe công thức ba	Thể thao
Nhảy dù	Thể thao
Lướt ván	Thể thao
Cầu lông	Thể thao
Bóng bàn	Thể thao
Quần vợt	Thể thao
Trượt băng nghệ thuật	Thể thao
Khúc côn cầu trên băng	Thể thao
Trượt băng trên bánh xe	Thể thao
Trượt băng tốc độ	Thể thao
Trượt tuyết đường núi	Thể thao
Khúc côn cầu trên tuyết	Thể thao
Trượt tuyết việt dã	Thể thao
Trượt tuyết trên cỏ	Thể thao
Trượt tuyết trên bánh xe	Thể thao
Bóng chuyền bãi biển	Thể thao
Bóng đá bãi biển	Thể thao
Bóng ném bãi biển	Thể thao
Bóng rổ bãi biển	Thể thao
Khúc côn cầu bãi biển	Thể thao
Bắn cung	Thể thao
Bắn súng	Thể thao
Bắn nỏ	Thể thao
Phi tiêu	Thể thao
Bóng chày	Thể thao
Cricket	Thể thao
Bóng rổ	Thể thao
Bóng chuyền	Thể thao
Bóng đá	Thể thao
Futsal (bóng đá trong nhà)	Thể thao
Bóng ném	Thể thao
Cầu mây	Thể thao
Cầu chinh	Thể thao
Bóng bầu dục	Thể thao
Khúc côn cầu (hockey)	Thể thao
Bóng đá kiểu bầu dục	Thể thao
Bóng chày	Thể thao
Cricket	Thể thao
Bóng rổ	Thể thao
Bóng chuyền	Thể thao
Bóng đá	Thể thao
Futsal (bóng đá trong nhà)	Thể thao
Bóng ném	Thể thao
Cầu mây	Thể thao
Cầu chinh	Thể thao
Bóng bầu dục	Thể thao
Khúc côn cầu (hockey)	Thể thao
Bóng đá kiểu bầu dục	Thể thao
Năm môn phối hợp	Thể thao
Ba môn phối hợp	Thể thao
Hai môn phối hợp	Thể thao
Mười môn phối hợp	Thể thao
Billiards snooker	Thể thao
Bowling	Thể thao
Bóng mềm	Thể thao
Câu cá thể thao	Thể thao
Đánh gôn	Thể thao
Bi sắt	Thể thao
Cờ vua	Thể thao
Cờ tướng	Thể thao
Cờ vây	Thể thao
Cờ Othello	Thể thao
Shogi	Thể thao
Cờ cá ngựa	Thể thao
Checkers	Thể thao
Backgammon	Thể thao
Renju	Thể thao
Tú lơ khơ	Thể thao
Bơi	Thể thao
Bóng nước (Water Polo)	Thể thao
Bơi Nghệ thuật (Synchronize swimming)	Thể thao
Nhảy cầu	Thể thao
Đua thuyền Canoe và Kayak	Thể thao
Đua thuyền buồm	Thể thao
Rowing	Thể thao
Lặn biển	Thể thao
