TOPIC,GROUP
,
"Avatar ",Movie
"VietinBank ",Company
"Vietnam ",Country
"kích hoạt thẻ RSA doanh nghiệp",
"Xử lý lỗi điện, giao dịch eFAST",
"chương trình thi đua khách hàng doanh nghiệp",
"chương trình tín dụng khách hàng doanh nghiệp",
"cho vay mua ô tô doanh nghiệp",
"Tiền gửi khách hàng doanh nghiệp",
"Chương trình tín dụng - Khách hàng doanh nghiệp",
"Chương trình thi đua - Khách hàng doanh nghiệp",
"Dịch vụ Ngân hàng điện tử - VietinBank eFAST",
"Barrel racing",
"Chilean rodeo",
"Cross country",
"Sport fishing",
"Ancient games",
"Indoor soccer",
"Shotgun start",
"Parallel bars",
"Team handball",
"Hare coursing",
"Kite fighting",
"Pilota family",
"Basque pelota",
"Squash tennis",
"Half marathon",
"Tower running",
Ultramarathon,
"Alpine skiing",
"Nordic skiing",
"Trap shooting",
"Card stacking",
"Dice stacking",
"Sledge hockey",
"Inline hockey",
"Skater hockey",
"Street hockey",
"Elephant polo",
"Street sports",
"Hide and seek",
Wall-and-ball,
"Surf kayaking",
"Banger racing",
"Desert racing",
"Formula Libre",
"Monster truck",
"Street racing",
"MotoGP racing",
"Indoor enduro",
"Marker sports",
"Rubik's Clock",
"Wood chopping",
Hockey,
"Arm wrestling",
"Toe wrestling",
"Target sports",
"Hang gliding",
Paramotoring,
"Sepak takraw",
"Bat and trap",
"Test cricket",
Longboarding,
Sandboarding,
Bodyboarding,
Wakeboarding,
Kneeboarding,
"Newcomb ball",
"Aid climbing",
"Ice climbing",
"Dirt jumping",
Aiki-j?jutsu,
Malla-yuddha,
Cockfighting,
"Pradal serey",
"Jeet Kune Do",
"Kuk Sool Won",
"Pencak Silat",
"Shoot boxing",
Vajra-mushti,
"Two kend?ka.",
"Axe throwing",
"Modern Arnis",
"Snooker plus",
Campdrafting,
"Horse racing",
"Show jumping",
Steeplechase,
"Team penning",
"Tent pegging",
Spearfishing,
"Surf fishing",
"Rock fishing",
"Mob football",
"Beach soccer",
"Keepie uppie",
"Eton College",
"Rugby league",
"Rugby sevens",
"Snail racing",
"Hybrid codes",
"Balance beam",
"Pommel horse",
"Rope jumping",
Trampolining,
"Deer hunting",
"Wolf hunting",
"Ice yachting",
"Jeu de paume",
"Beach tennis",
"Robot combat",
"Bronc Riding",
"Pole Bending",
"Road running",
"Land sailing",
Kiteboarding,
"Speed skiing",
"Field target",
"Power hockey",
"Box lacrosse",
"Bicycle polo",
"Free running",
Powerbocking,
"Kick the can",
Bushwhacking,
"Sea kayaking",
"Single scull",
Breaststroke,
"Medley relay",
Powerlifting,
Steinstossen,
Hillclimbing,
"Truck racing",
"Ice speedway",
"Track racing",
"Losing chess",
"Hammer throw",
"Combat robot",
Boardercross,
"Table sports",
"Connect Four",
"Table hockey",
Shuffleboard,
"Chess boxing",
Aizkolaritza,
Parachuting,
Paragliding,
"Footbag net",
Wakesurfing,
Windsurfing,
"Catch games",
Coasteering,
Cyclo-cross,
"Ya?l? G",
"Tang Soo Do",
"Hwa Rang Do",
"Jogo do pau",
"Bottle pool",
"Bumper pool",
"Fly fishing",
"Ice fishing",
Flutterguts,
Woggabaliri,
"Metro footy",
"Beach rugby",
"Rugby union",
"Touch rugby",
"Samoa rules",
"Stroke play",
"Still rings",
"Uneven bars",
"Fox hunting",
"Kite sports",
Parasailing,
"Snow kiting",
"Rugby Fives",
"Four square",
"Real tennis",
"Soft tennis",
Speedminton,
"Calf Roping",
"Team Roping",
"Snow sports",
"Ski jumping",
"Ski touring",
"Sled sports",
"Ball hockey",
"Pond hockey",
Intercrosse,
"Cowboy polo",
"Segway polo",
Racewalking,
Freeboating,
Snorkelling,
"Drag racing",
"Mud bogging",
"Road racing",
"Time attack",
Off-roading,
Speedcubing,
"Triple jump",
"Geo caching",
"Goal sports",
"Ice dancing",
"Rink hockey",
Snowshoeing,
Skiboarding,
See,
"Team sports",
"Tennis polo",
Aerobatics,
"Air racing",
Ballooning,
Skysurfing,
Footvolley,
Hooverball,
Pickleball,
Streetball,
"Slow pitch",
Wiffleball,
Bucketball,
Scootering,
Streetluge,
Snowkiting,
Yukigassen,
Bouldering,
"Cycle polo",
Skibobbing,
Unicycling,
"Boli Khela",
"Shuai Jiao",
Kickboxing,
Baguazhang,
Pankration,
Xingyiquan,
Batt?jutsu,
Juttejutsu,
Pool,
Eight-ball,
One-pocket,
Three-ball,
Seven-ball,
"Speed pool",
Bowlliards,
"Kelly pool",
Equitation,
Polocrosse,
"Dodge disc",
Goaltimate,
"Marn Grook",
"Yubi lakpi",
"Haxey Hood",
Knattleikr,
"Lelo burti",
"Field game",
"Mini footy",
"Mod league",
"Mini rugby",
"Rugby tens",
"Snow rugby",
"Match play",
"Skins game",
"Speed golf",
Tchoukball,
"Water polo",
"Ice sports",
"Rink bandy",
"Kite buggy",
Heptathlon,
Icosathlon,
Pentathlon,
Tetrathlon,
Waymarking,
"Eton Fives",
Speed-ball,
Bullriding,
"Goat Tying",
"Canoe polo",
"Horse polo",
"Gig racing",
Underwater,
Backstroke,
Freediving,
"Ice racing",
"Rally raid",
Rallycross,
Grasstrack,
Supercross,
"ATV racing",
"Card games",
"Square - 1",
Backgammon,
"Sholo Guti",
"Pole vault",
Contesting,
"Drum corps",
Snowsports,
"Ski flying",
Zourkhaneh,
"Air hockey",
"Bocce volo",
Windsports,
Calvinball,
Logrolling,
"Soap shoes",
Tetherball,
Padiddling,
Bossaball,
Throwball,
Wallyball,
Cestoball,
Punchball,
Dodgeball,
"Keep away",
Abseiling,
Kinomichi,
Wrestling,
Schwingen,
"Muay Thai",
Taekkyeon,
"Wing Chun",
Kajukenbo,
"Krav Maga",
"Vale tudo",
Hoj?jutsu,
Five-pins,
Nine-ball,
"Bank pool",
Cutthroat,
Bagatelle,
Charreada,
Horseball,
Freestyle,
Episkyros,
Harpastum,
Ki-o-rahi,
Jorkyball,
"Rec footy",
"Wall game",
"Tag rugby",
Speedball,
"Team play",
Broomball,
Decathlon,
Rogaining,
Frontenis,
Racketlon,
"RC racing",
Endurance,
Skijoring,
Bobsleigh,
Hornussen,
Floorball,
"Red rover",
Autograss,
"Auto Race",
Motocross,
Supermoto,
Superside,
"TT racing",
Diplomacy,
"Long jump",
"High jump",
Strongman,
Tug-o-war,
"Beer Pong",
"Pall mall",
"Skee ball",
Horseshoe,
"Sack race",
Tennikoit,
Popinjay,
Fistball,
Korfball,
Ringball,
Slamball,
Softball,
Twenty20,
Kickball,
Kilikiti,
Tee-ball,
Wireball,
Kin-Ball,
Hapsagai,
Pehlwani,
Striking,
Capoeira,
"San shou",
"Zui quan",
Bartitsu,
Bujinkan,
Ninjutsu,
Iaijutsu,
Kenjutsu,
Ky?jutsu,
Silambam,
Skirmish,
Snooker.,
Ten-ball,
Rotation,
Buzkashi,
Dressage,
Eventing,
Gymkhana,
Jousting,
Noodling,
"Disc dog",
Chinlone,
"La soule",
"Papi fut",
"High bar",
Tumbling,
Goalball,
Beagling,
Ringette,
Biathlon,
Duathlon,
Woodsman,
"Jai alai",
Qianball,
Racquets,
Marathon,
Skeleton,
Toboggan,
Stacking,
"Yak polo",
"Butts Up",
Wallball,
Canoeing,
Creeking,
Royaking,
Surfboat,
Drifting,
Folkrace,
Rallying,
Quizzing,
Pyraminx,
Megaminx,
Checkers,
Dominoes,
Scrabble,
Stratego,
Throwing,
"Shot put",
Rinkball,
Subbuteo,
Cornhole,
P,
Skittles,
Woodball,
Gateball,
Gliding,
Biribol,
Fastnet,
Matball,
Jujutsu,
Ssireum,
Bokator,
Lethwei,
Sikaran,
Hapkido,
Sanshou,
Systema,
Vovinam,
Weapons,
Eskrima,
J?kend?,
"Kung fu",
S?jutsu,
Chicago,
Snooker,
Cutting,
Reining,
Angling,
Casting,
"Hot box",
"Ba game",
Trapeze,
Torball,
Patball,
"10K run",
Hurdles,
Spongee,
Hurling,
Camogie,
"Kho kho",
Surface,
Go-Moku,
Jacquet,
Mancala,
Jumping,
Javelin,
Croquet,
Bunnock,
Guyball,
Gungdo,
Peteca,
Palant,
Skibob,
Aikido,
Kurash,
Karate,
Savate,
Killer,
Cowboy,
Hunter,
Kemari,
Cnapan,
Futsal,
Austus,
Kronum,
Volata,
Ribbon,
Stick,
[show],
Roping,
"5K run",
Sprint,
Cammag,
Shinty,
Jugger,
Waboba,
Diving,
Enduro,
Arimaa,
Sudoku,
Neppis,
Discus,
Atlatl,
Headis,
Janggi,
Boccia,
Boules,
Ky?d?,
Ga-ga,
Other,
Dumog,
Glima,
Kenp?,
Silat,
Subak,
Taido,
Bando,
MCMAP,
Gatka,
Iaid?,
Kendo,
Wushu,
Kumdo,
Cirit,
Rodeo,
Ringo,
Floor,
Vault,
Bandy,
Fives,
Palla,
Piton,
Oztag,
Flyak,
Trial,
2x2x2,
3x3x3,
4x4x4,
5x5x5,
6x6x6,
7x7x7,
Skewb,
Shogi,
Bocce,
Calva,
Trugo,
Sipa,
Oina,
Hala,
Sumo,
J?d?,
Pato,
Guts,
Cuju,
Caid,
Ball,
Club,
Hoop,
Rope,
Xare,
Luge,
Risk,
Kubb,
BMX,
Tag,
Are'are,Language
'Auhelawa,Language
A'Tong,Language
Aari,Language
Aariya,Language
Abanyom,Language
Abaza,Language
Abkhaz,Language
Abujmaria,Language
Acehnese,Language
"Adamorobe Sign Language",Language
Adele,Language
Adyghe,Language
Afar,Language
Afrikaans,Language
"Afro-Seminole Creole",Language
Aimaq,Language
Aini,Language
Ainu,Language
Akan,Language
Akawaio,Language
Aklanon,Language
Albanian,Language
Aleut,Language
Algonquin,Language
Alsatian,Language
Altay,Language
Alutor,Language
"American Sign Language",Language
Amharic,Language
Anda,Language
Amdang,Language
Angika,Language
Anyin,Language
Ao,Language
A-Pucikwar,Language
Arabic,Language
Aragonese,Language
Aramaic,Language
Are,Language
Argobba,Language
Aromanian,Language
Armenian,Language
Arvanitic,Language
Ashkun,Language
Assamese,Language
"Assyrian Neo-Aramaic",Language
Ateso,Language
Asi,Language
Asturian,Language
Auslan,Language
Austro-Bavarian,Language
Avar,Language
Avestan,Language
Awadhi,Language
Aymara,Language
Azerbaijani,Language
Badaga,Language
Badeshi,Language
Bahnar,Language
Balinese,Language
Balochi,Language
Balti,Language
Bambara,Language
Banjar,Language
Banyumasan,Language
Bartangi,Language
Basaa,Language
Bashkardi,Language
Bashkir,Language
Basque,Language
"Batak Karo",Language
"Batak Toba",Language
Bats,Language
Beja,Language
Belarusian,Language
Belhare,Language
Berta,Language
Bemba,Language
Bengali,Language
Bezhta,Language
Berber,Language
Betawi,Language
Bete,Language
B,Language
Bhili,Language
Bhojpuri,Language
"Bijil Neo-Aramaic",Language
Bikol,Language
Bikya,Language
Bissa,Language
Blackfoot,Language
Boholano,Language
"Bohtan Neo-Aramaic",Language
Bonan,Language
Bororo,Language
Bodo,Language
Bosnian,Language
Brahui,Language
Breton,Language
"British Sign Language",Language
Bru,Language
"Brunei Malay",Language
Bua,Language
Buginese,Language
Bukusu,Language
Bulgarian,Language
Bunjevac,Language
Burmese,Language
Burushaski,Language
Buryat,Language
Caluyanon,Language
Cantonese,Language
"Cape Verdean Creole",Language
Catalan,Language
Cayuga,Language
Cebuano,Language
Chabacano,Language
Chaga,Language
Chakma,Language
"Chaldean Neo-Aramaic",Language
Cham,Language
Chamorro,Language
Chaouia,Language
Chechen,Language
Chenchu,Language
Chenoua,Language
Cherokee,Language
Cheyenne,Language
Chhattisgarhi,Language
Chickasaw,Language
Chintang,Language
Chilcotin,Language
Chinese,Language
Chiricahua,Language
Chichewa,Language
Chipewyan,Language
Chittagonian,Language
Choctaw,Language
Chorasmian,Language
Chukchi,Language
Chulym,Language
"Church Slavonic",Language
Chuukese,Language
Chuvash,Language
Cocoma,Language
Cocopa,Language
"Coeur d",Language
Comanche,Language
Comorian,Language
Cornish,Language
Corsican,Language
Cree,Language
"Crimean Tatar",Language
Croatian,Language
Cuyonon,Language
Czech,Language
Dagbani,Language
Dahlik,Language
Dalecarlian,Language
Dameli,Language
Danish,Language
Dargin,Language
"Dari ",Language
Dari-Persian,Language
Daur,Language
Dena'ina,Language
Dhatki,Language
Dhivehi,Language
Dida,Language
Dioula,Language
Dogri,Language
Dogrib,Language
Dolgan,Language
Domaaki,Language
Dongxiang,Language
Duala,Language
Dungan,Language
Dutch,Language
Dzhidi,Language
Dzongkha,Language
"Eastern Yugur",Language
"Egyptian Arabic",Language
Ekoti,Language
Enets,Language
English,Language
Erzya,Language
Esperanto,Language
Estonian,Language
Even,Language
Evenk,Language
Ewe,Language
Extremaduran,Language
Faroese,Language
Fang,Language
Fijian,Language
Filipino,Language
"Finland-Swedish Sign Language",Language
Finnish,Language
"Finnish Sign Language",Language
"Flemish language",Language
Fon,Language
Franco-Proven,Language
French,Language
"French Sign Language",Language
"Frisian, North",Language
"Frisian, Saterland",Language
"Frisian, West",Language
Friulian,Language
Fula,Language
Fur,Language
Ga,Language
Gadaba,Language
Gagauz,Language
Galician,Language
"Gan Chinese",Language
Ganda,Language
Gangte,Language
Garhwali,Language
Gayo,Language
Gen,Language
Georgian,Language
German,Language
"German Sign Language",Language
Gikuyu,Language
Gilbertese,Language
Gileki,Language
Goaria,Language
Gondi,Language
Gorani,Language
Gawar-Bati,Language
Greenlandic,Language
Greek,Language
Guaran,Language
"Guinea-Bissau Creole",Language
Gujarati,Language
"Gula Iro",Language
Gullah,Language
Gusii,Language
Gwich?in,Language
Hadza,Language
Haida,Language
"Haitian Creole",Language
Hakka,Language
H,Language
Hani,Language
Harari,Language
Harauti,Language
Harsusi,Language
Haryanavi,Language
Harzani,Language
Hausa,Language
Havasupai,Language
Hawaiian,Language
"Hawaii Pidgin Sign Language",Language
Hazaragi,Language
Hebrew,Language
Herero,Language
Hiligaynon,Language
Hindi,Language
Hindustani,Language
Hinukh,Language
"Hiri Motu",Language
Hixkaryana,Language
Hmong,Language
Ho,Language
Hoby,Language
Hopi,Language
Hulaul,Language
Hungarian,Language
"Hutterite German",Language
Ibibio,Language
Iban,Language
Ibanag,Language
Icelandic,Language
If,Language
Igbo,Language
Ikalanga,Language
"Ili Turki",Language
Ilokano,Language
"Inari Sami",Language
Indonesian,Language
Ingrian,Language
Ingush,Language
Inuktitut,Language
Inupiaq,Language
Inuvialuktun,Language
Iraqw,Language
Irish,Language
"Irish Sign Language",Language
Irula,Language
Isan,Language
Ishkashimi,Language
Istro-Romanian,Language
Italian,Language
Itelmen,Language
Jacaltec,Language
Jalaa,Language
Japanese,Language
Japhug,Language
Jaqaru,Language
Jarai,Language
Javanese,Language
Jibbali,Language
"Jewish Babylonian Aramaic",Language
"Jicarilla Apache",Language
Juang,Language
Jurchen,Language
Kabardian,Language
Kabyle,Language
Kachin,Language
Kalami,Language
Kalasha,Language
Kalmyk,Language
Kalto,Language
Kankanai,Language
Kannada,Language
Kaonde,Language
Kapampangan,Language
Karachay-Balkar,Language
Karagas,Language
Karaim,Language
Karakalpak,Language
Karelian,Language
Kashmiri,Language
Kashubian,Language
Kazakh,Language
Kerek,Language
Ket,Language
Khakas,Language
Khalaj,Language
Kham,Language
Khandeshi,Language
Khanty,Language
Khasi,Language
Khitan,Language
Khmer,Language
Khmu,Language
Khowar,Language
"Kildin Sami",Language
Kimatuumbi,Language
Kinaray-a,Language
Kinyarwanda,Language
Kirombo,Language
Kirundi,Language
Kivunjo,Language
Klallam,Language
"Kodava Takk",Language
Kohistani,Language
Kolami,Language
Komi,Language
Konkani,Language
Kongo,Language
Koraga,Language
Korandje,Language
Korean,Language
Korku,Language
Korowai,Language
Korwa,Language
Koryak,Language
Kosraean,Language
Kota,Language
"Koyra Chiini",Language
"Koy Sanjaq Surat",Language
Koya,Language
Krymchak,Language
Kujarge,Language
Kui,Language
Kumauni,Language
Kumyk,Language
Kumzari,Language
?Kung,Language
Kurdish,Language
Kurukh,Language
Kusunda,Language
Kutenai,Language
Kuy,Language
Kwanyama,Language
Kxoe,Language
Kyrgyz,Language
Laal,Language
Ladakhi,Language
Ladin,Language
Ladino,Language
Laki,Language
Lakota,Language
Lambadi,Language
Lao,Language
Larestani,Language
Latin,Language
Latgalian,Language
Latvian,Language
Laz,Language
Leonese,Language
Lezgi,Language
Ligbi,Language
Limburgish,Language
Lingala,Language
"Lipan Apache",Language
"Lisan al-Dawat",Language
"Lishana Deni",Language
"Lishanid Noshan",Language
Lithuanian,Language
Livonian,Language
Lombard,Language
Lotha,Language
"Low German",Language
"Lower Sorbian",Language
Lozi,Language
Ludic,Language
Lunda,Language
Luri,Language
Lushootseed,Language
Lusoga,Language
Luvale,Language
Luwati,Language
Luxembourgish,Language
Macedonian,Language
Madurese,Language
Magadhi,Language
Maguindanao,Language
Maithili,Language
Makasar,Language
Makhuwa,Language
Makhuwa-Meetto,Language
Malagasy,Language
Malay,Language
Malayalam,Language
"Malaysian Sign Language",Language
Maltese,Language
Malto,Language
Malvi,Language
Mam,Language
Manchu,Language
Mandaic,Language
Mandarin,Language
Mandinka,Language
Mansi,Language
Manx,Language
Manyika,Language
Maori,Language
Mapudungun,Language
Maranao,Language
Marathi,Language
Mari,Language
Maria,Language
Marquesan,Language
Marshallese,Language
"Martha's Vineyard Sign Language",Language
Masaba,Language
Masbatenyo,Language
Meitei,Language
"Mauritian Creole",Language
Maya,Language
Mazandarani,Language
Me,Language
Megleno-Romanian,Language
Megrelian,Language
Mehri,Language
Menominee,Language
Mentawai,Language
Meroitic,Language
"Mescalero Apache",Language
Meru,Language
Michif,Language
Mikasuki,Language
Mi'kmaq,Language
Minangkabau,Language
Mirandese,Language
Mnong,Language
"Mobilian Jargon",Language
Moghol,Language
Mohawk,Language
Moksha,Language
Molengue,Language
Mon,Language
Mongolian,Language
Mono,Language
Montagnais,Language
Montenegrin,Language
Motu,Language
Muher,Language
Mundari,Language
Munji,Language
Muong,Language
Muria,Language
Nafaanra,Language
Nagarchal,Language
Nahuatl,Language
Nama,Language
Nanai,Language
Nauruan,Language
Navajo,Language
Ndau,Language
Ndonga,Language
Neapolitan,Language
Negidal,Language
Nenets,Language
"Nepal Bhasa",Language
Nepali,Language
"New Zealand Sign Language",Language
Nihali,Language
Nganasan,Language
Ngumba,Language
Nheengatu,Language
Nias,Language
"Nicaraguan Sign Language",Language
Niellim,Language
"Nigerian Pidgin",Language
Nisenan,Language
Niuean,Language
Nivkh,Language
Nogai,Language
Norfuk,Language
Norman,Language
"Northern Ndebele",Language
"Northern Sami",Language
"Northern Sotho",Language
"Northern Straits Salish",Language
"Northern Yukaghir",Language
Norwegian,Language
Nuer,Language
Nux,Language
Nyabwa,Language
"Nyah Kur",Language
Nyangumarta,Language
Nyoro,Language
N?u,Language
"Occitan or Proven",Language
Ojibwe,Language
Okinawan,Language
"Olonets Karelian",Language
Omagua,Language
Ongota,Language
Odia,Language
Ormuri,Language
Oroch,Language
Orok,Language
Oromo,Language
Ossetic,Language
Palauan,Language
Pangasinan,Language
Papiamento,Language
Parachi,Language
Parya,Language
Pashto,Language
"Pennsylvania Dutch",Language
Persian,Language
Phalura,Language
Phuthi,Language
Picard,Language
Pirah,Language
Plautdietsch,Language
Polish,Language
Portuguese,Language
Pothohari,Language
Pradhan,Language
Puelche,Language
Puma,Language
Punjabi,Language
Qashqai,Language
"Quebec Sign Language",Language
Quechua,Language
Rajasthani,Language
Ratagnon,Language
R,Language
Romanian,Language
Romansh,Language
Romany,Language
Romblomanon,Language
Rotokas,Language
"Runyankole language",Language
Russian,Language
"Russian Sign Language",Language
Ruthenian,Language
Salar,Language
Samoan,Language
Sandawe,Language
Sango,Language
Sanskrit,Language
Santali,Language
Sara,Language
Saraiki,Language
Saramaccan,Language
Sardinian,Language
Sarikoli,Language
Saurashtra,Language
Savara,Language
Savi,Language
Sawai,Language
Scots,Language
"Scots Gaelic",Language
"Selangor Sign Language",Language
Selkup,Language
Semnani,Language
Senaya,Language
Serbian,Language
Serbo-Croatian,Language
Sesotho,Language
Seto,Language
"Seychellois Creole",Language
Shan,Language
Shimaore,Language
Shina,Language
Shona,Language
Shor,Language
Shoshoni,Language
Shughni,Language
Shumashti,Language
Shuswap,Language
"Siberian Tatar",Language
Sicilian,Language
Sidamo,Language
Sika,Language
Silesian,Language
Silt'e,Language
Sindhi,Language
Sinhalese,Language
Sioux,Language
Sivandi,Language
"Skolt Sami",Language
Slavey,Language
Slovak,Language
Slovene,Language
Soddo,Language
Somali,Language
Sonjo,Language
Sonsorolese,Language
Soqotri,Language
Sora,Language
"Sorbian, Lower",Language
"Sorbian, Upper",Language
Sourashtra,Language
"Southern Ndebele",Language
"Southern Sami",Language
"South Estonian",Language
"Southern Yukaghir",Language
Spanish,Language
"Sranan Tongo",Language
St'at'imcets,Language
Sucite,Language
Suba,Language
Sundanese,Language
Supyire,Language
Surigaonon,Language
Susu,Language
Svan,Language
Swahili,Language
Swati,Language
Swedish,Language
Syriac,Language
Tabasaran,Language
Tachelhit,Language
Tagalog,Language
Tahitian,Language
"Taiwanese Sign Language",Language
Tajik,Language
Takestani,Language
Talysh,Language
Tamil,Language
Tanacross,Language
Tangut,Language
Tarifit,Language
Tat,Language
Tatar,Language
Tausug,Language
Tehuelche,Language
Telugu,Language
Tetum,Language
"Tepehua language",Language
Tepehu,Language
Thai,Language
Tharu,Language
Tibetan,Language
Tigre,Language
Tigrinya,Language
Timbisha,Language
Tiv,Language
Tlingit,Language
Tobian,Language
Toda,Language
"Tok Pisin",Language
Tokelauan,Language
Tonga,Language
Tongan,Language
Torwali,Language
Tregami,Language
Tsat,Language
Tsez,Language
Tshiluba,Language
Tsimshian,Language
Tsonga,Language
Tswana,Language
Tu,Language
"Tuareg languages",Language
Tulu,Language
Tumbuka,Language
"Tunisian Arabic",Language
Tupiniquim,Language
Turkish,Language
Turkmen,Language
Turoyo,Language
Tuvaluan,Language
Tuvan,Language
Udihe,Language
Udmurt,Language
Ukrainian,Language
Ulch,Language
Unserdeutsch,Language
"Upper Sorbian",Language
Urdu,Language
Uripiv,Language
Urum,Language
Ute,Language
Uyghur,Language
Uzbek,Language
Vafsi,Language
Valencian,Language
"Valencian Sign Language",Language
Vasi-vari,Language
Venda,Language
Venetian,Language
Veps,Language
Vietnamese,Language
V,Language
Votic,Language
Wa,Language
Waddar,Language
Waigali,Language
Waima,Language
Wakhi,Language
Walloon,Language
Waray,Language
Washo,Language
Welsh,Language
"Western Neo-Aramaic",Language
"Wolane ",Language
Wolof,Language
Wu,Language
Xhosa,Language
Xiang,Language
Xibe,Language
Xipaya,Language
?X,Language
"Yaaku language",Language
"Yaeyama language",Language
Yaghnobi,Language
Yakut,Language
"Yankunytjatjara language",Language
Yanomami,Language
Yanyuwa,Language
Yao,Language
Yapese,Language
Yaqui,Language
Yauma,Language
Yavapai,Language
Yazdi,Language
Yazgulyam,Language
"Yemenite Hebrew",Language
Yeni,Language
Yevanic,Language
"Yi language",Language
Yiddish,Language
Yidgha,Language
Yogur,Language
"Yokutsan languages",Language
"Yonaguni language",Language
Yor,Language
"Yucatec Maya language",Language
"Yucatec Maya Sign Language",Language
"Yuchi language",Language
Yugur,Language
"Yukaghir languages",Language
"Yupik language",Language
"Yurats language",Language
"Yurok language",Language
Z,Language
Zapotec,Language
Zazaki,Language
Zhuang,Language
Zoque,Language
Zulu,Language
Zu,Language
Zway,Language
